Diamond Price Estimations
…
Price Estimation with CART

Splitting data into train and test datasets

set.seed(503)

diamonds_test <- diamonds %>% mutate(diamond_id = row_number()) %>% 
    group_by(cut, color, clarity) %>% sample_frac(0.2) %>% ungroup()

diamonds_train <- anti_join(diamonds %>% mutate(diamond_id = row_number()), 
    diamonds_test, by = "diamond_id")

diamonds_train

## # A tibble: 43,143 x 11
##    carat cut       color clarity depth table price     x     y     z diamond_id
##    <dbl> <ord>     <ord> <ord>   <dbl> <dbl> <int> <dbl> <dbl> <dbl>      <int>
##  1 0.21  Premium   E     SI1      59.8    61   326  3.89  3.84  2.31          2
##  2 0.23  Good      E     VS1      56.9    65   327  4.05  4.07  2.31          3
##  3 0.290 Premium   I     VS2      62.4    58   334  4.2   4.23  2.63          4
##  4 0.31  Good      J     SI2      63.3    58   335  4.34  4.35  2.75          5
##  5 0.24  Very Good I     VVS1     62.3    57   336  3.95  3.98  2.47          7
##  6 0.26  Very Good H     SI1      61.9    55   337  4.07  4.11  2.53          8
##  7 0.22  Fair      E     VS2      65.1    61   337  3.87  3.78  2.49          9
##  8 0.23  Very Good H     VS1      59.4    61   338  4     4.05  2.39         10
##  9 0.3   Good      J     SI1      64      55   339  4.25  4.28  2.73         11
## 10 0.23  Ideal     J     VS1      62.8    56   340  3.93  3.9   2.46         12
## #  with 43,133 more rows

diamonds_test

## # A tibble: 10,797 x 11
##    carat cut   color clarity depth table price     x     y     z diamond_id
##    <dbl> <ord> <ord> <ord>   <dbl> <dbl> <int> <dbl> <dbl> <dbl>      <int>
##  1 1.7   Fair  D     I1       64.7    56  5617  7.46  7.37  4.8       13776
##  2 0.580 Fair  D     SI2      65.1    58  1156  5.25  5.22  3.41      40690
##  3 1     Fair  D     SI2      65.6    66  3767  6.1   6.01  3.97       5152
##  4 1.05  Fair  D     SI2      65.4    59  3816  6.3   6.24  4.1        5359
##  5 0.7   Fair  D     SI2      64.5    60  2167  5.53  5.47  3.55      49828
##  6 0.9   Fair  D     SI2      64.6    59  3847  6.04  6.01  3.89       5510
##  7 1.01  Fair  D     SI2      64.6    56  3003  6.31  6.24  4.05       1555
##  8 1.1   Fair  D     SI2      64.6    54  4725  6.56  6.49  4.22      10151
##  9 0.62  Fair  D     SI2      64.6    57  1410  5.39  5.33  3.46      43397
## 10 1.5   Fair  D     SI2      68.8    57  7469  6.9   6.86  4.73      18359
## #  with 10,787 more rows
…
Complexity Parameter(CP) plot and table show that automatic splitting number (6) is the optimum number of splits for this tree, since it minimizes the xerror term.

Predictions

predictions<-predict(model,diamonds_test,type = "vector")

predict_vs_actual<- diamond_test %>%
  select(price)%>%
  mutate(prediction=predictions, abs_difference=abs(price-prediction),abs_percentage=abs(price-prediction)/price)
predict_vs_actual

## # A tibble: 10,797 x 4
##    price prediction abs_difference abs_percentage
##    <int>      <dbl>          <dbl>          <dbl>
##  1  5617     10941.          5324.         0.948 
##  2  1156      1050.           106.         0.0914
##  3  3767      5401.          1634.         0.434 
##  4  3816      5401.          1585.         0.415 
##  5  2167      3060.           893.         0.412 
##  6  3847      3060.           787.         0.205 
##  7  3003      5401.          2398.         0.799 
##  8  4725      5401.           676.         0.143 
##  9  1410      1050.           360.         0.255 
## 10  7469      5401.          2068.         0.277 
## #  with 10,787 more rows
…
